# Blender MTL File: 'None'
# Material Count: 4

newmtl polySurface1SG1
Ns 0.000000
Ka 1.000000 1.000000 1.000000
Kd 0.000000 0.020000 1.000000
Ks 0.000000 0.000000 0.000000
Ke 0.000000 0.000000 0.000000
Ni 1.000000
d 1.000000
illum 1

newmtl polySurface1SG2
Ns 0.000000
Ka 1.000000 1.000000 1.000000
Kd 0.520000 0.950000 1.000000
Ks 0.000000 0.000000 0.000000
Ke 0.000000 0.000000 0.000000
Ni 1.000000
d 1.000000
illum 1

newmtl polySurface1SG3
Ns 0.000000
Ka 1.000000 1.000000 1.000000
Kd 1.000000 0.000000 0.000000
Ks 0.000000 0.000000 0.000000
Ke 0.000000 0.000000 0.000000
Ni 1.000000
d 1.000000
illum 1

newmtl polySurface1SG4
Ns 0.000000
Ka 1.000000 1.000000 1.000000
Kd 0.890000 0.890000 0.890000
Ks 0.000000 0.000000 0.000000
Ke 0.000000 0.000000 0.000000
Ni 1.000000
d 1.000000
illum 1
