# Blender v3.2.2 OBJ File: ''
# www.blender.org
mtllib torpedo.mtl
o Sphere
v 0.000000 0.980785 0.195090
v 0.000000 0.555570 0.831470
v 0.000000 -0.831470 0.555570
v -0.137950 0.980785 0.137950
v -0.587938 0.555570 0.587938
v -0.693520 -0.195090 0.693520
v -0.392848 -0.831470 0.392847
v -0.195090 0.980785 -0.000000
v -0.831469 0.555570 -0.000000
v -0.980785 -0.195090 -0.000000
v -0.555570 -0.831470 -0.000000
v -0.137950 0.980785 -0.137950
v -0.587938 0.555570 -0.587938
v -0.693520 -0.195090 -0.693520
v -0.392847 -0.831470 -0.392847
v -0.000000 0.980785 -0.195090
v 0.000000 0.555570 -0.831469
v 0.000000 -0.195090 -0.980785
v 0.000000 -0.831470 -0.555570
v 0.137950 0.980785 -0.137950
v 0.587937 0.555570 -0.587938
v 0.693520 -0.195090 -0.693520
v 0.392847 -0.831470 -0.392847
v 0.000000 1.000000 -0.000000
v 0.195090 0.980785 -0.000000
v 0.831469 0.555570 -0.000000
v 0.980785 -0.195090 0.000000
v 0.555570 -0.831470 0.000000
v 0.137950 0.980785 0.137950
v 0.587937 0.555570 0.587937
v 0.693519 -0.195090 0.693520
v 0.392847 -0.831470 0.392847
v -0.000000 -0.195090 0.980785
v 0.000000 -2.103062 -0.000000
vt 0.500000 0.687500
vt 0.625000 0.937500
vt 0.500000 0.937500
vt 0.750000 0.437500
vt 0.625000 0.687500
vt 0.625000 0.437500
vt 0.375000 0.687500
vt 0.250000 0.937500
vt 0.250000 0.687500
vt 0.750000 0.937500
vt 0.500000 0.187500
vt 0.375000 0.437500
vt 0.375000 0.187500
vt 0.515625 1.000000
vt 0.625000 0.187500
vt 0.671875 0.000000
vt 0.750000 0.687500
vt 0.875000 0.437500
vt 0.875000 0.687500
vt 0.500000 0.437500
vt 1.000000 0.687500
vt 0.125000 0.937500
vt 1.000000 0.937500
vt 0.375000 0.937500
vt 0.546875 0.000000
vt 0.390625 1.000000
vt 0.250000 0.437500
vt 0.250000 0.187500
vt 0.875000 0.937500
vt 0.421875 0.000000
vt 0.265625 1.000000
vt 0.125000 0.687500
vt 0.125000 0.437500
vt 0.125000 0.187500
vt 0.296875 0.000000
vt 0.140625 1.000000
vt 1.000000 0.437500
vt 1.000000 0.187500
vt 0.171875 0.000000
vt 0.015625 1.000000
vt 0.000000 0.437500
vt 0.000000 0.187500
vt 0.875000 0.187500
vt 0.046875 0.000000
vt 0.890625 1.000000
vt 0.750000 0.187500
vt 0.921875 0.000000
vt 0.765625 1.000000
vt 0.640625 1.000000
vt 0.796875 0.000000
vt 0.000000 0.687500
vn -0.8565 0.5161 -0.0000
vn -0.2746 0.9215 0.2746
vn -0.3883 0.9215 -0.0000
vn -0.0000 -0.1793 0.9838
vn -0.6056 0.5161 0.6056
vn -0.6956 -0.1793 0.6956
vn -0.6056 0.5161 -0.6056
vn 0.0000 0.9215 -0.3883
vn 0.0000 0.5161 -0.8565
vn 0.0000 0.9215 0.3883
vn -0.8722 -0.4892 -0.0000
vn -0.6956 -0.1793 -0.6956
vn -0.6167 -0.4892 -0.6167
vn 0.0000 1.0000 -0.0000
vn -0.6167 -0.4892 0.6167
vn -0.0000 -1.0000 -0.0000
vn 0.0000 0.5161 0.8565
vn 0.6956 -0.1793 0.6956
vn 0.6056 0.5161 0.6056
vn -0.9838 -0.1793 -0.0000
vn 0.8565 0.5161 0.0000
vn 0.2746 0.9215 -0.2746
vn 0.3883 0.9215 0.0000
vn -0.2746 0.9215 -0.2746
vn 0.0000 -0.1793 -0.9838
vn 0.0000 -0.4892 -0.8722
vn 0.2746 0.9215 0.2746
vn 0.6056 0.5161 -0.6056
vn 0.6956 -0.1793 -0.6956
vn 0.6167 -0.4892 -0.6167
vn 0.9838 -0.1793 0.0000
vn 0.8722 -0.4892 0.0000
vn 0.6167 -0.4892 0.6167
vn 0.0000 -0.4892 0.8722
usemtl None
s 1
f 9/1/1 4/2/2 8/3/3
f 33/4/4 5/5/5 6/6/6
f 13/7/7 16/8/8 17/9/9
f 5/5/5 1/10/10 4/2/2
f 11/11/11 14/12/12 15/13/13
f 4/2/2 24/14/14 8/3/3
f 7/15/15 11/11/11 34/16/16
f 2/17/17 31/18/18 30/19/19
f 7/15/15 33/4/4 6/6/6
f 10/20/20 13/7/7 14/12/12
f 26/21/21 20/22/22 25/23/23
f 13/7/7 8/3/3 12/24/24
f 11/11/11 15/13/13 34/25/16
f 8/3/3 24/26/14 12/24/24
f 15/13/13 18/27/25 19/28/26
f 30/19/19 25/23/23 29/29/27
f 14/12/12 17/9/9 18/27/25
f 15/13/13 19/28/26 34/30/16
f 12/24/24 24/31/14 16/8/8
f 18/27/25 21/32/28 22/33/29
f 19/28/26 22/33/29 23/34/30
f 19/28/26 23/34/30 34/35/16
f 16/8/8 24/36/14 20/22/22
f 22/33/29 26/21/21 27/37/31
f 23/34/30 27/37/31 28/38/32
f 23/34/30 28/38/32 34/39/16
f 20/22/22 24/40/14 25/23/23
f 27/41/31 30/19/19 31/18/18
f 28/42/32 31/18/18 32/43/33
f 28/38/32 32/43/33 34/44/16
f 25/23/23 24/45/14 29/29/27
f 32/43/33 3/46/34 34/47/16
f 29/29/27 24/48/14 1/10/10
f 17/9/9 20/22/22 21/32/28
f 1/10/10 24/49/14 4/2/2
f 6/6/6 9/1/1 10/20/20
f 11/11/11 6/6/6 10/20/20
f 31/18/18 3/46/34 32/43/33
f 3/46/34 7/15/15 34/50/16
f 1/10/10 30/19/19 29/29/27
f 9/1/1 5/5/5 4/2/2
f 33/4/4 2/17/17 5/5/5
f 13/7/7 12/24/24 16/8/8
f 5/5/5 2/17/17 1/10/10
f 11/11/11 10/20/20 14/12/12
f 2/17/17 33/4/4 31/18/18
f 7/15/15 3/46/34 33/4/4
f 10/20/20 9/1/1 13/7/7
f 26/21/21 21/32/28 20/22/22
f 13/7/7 9/1/1 8/3/3
f 15/13/13 14/12/12 18/27/25
f 30/19/19 26/51/21 25/23/23
f 14/12/12 13/7/7 17/9/9
f 18/27/25 17/9/9 21/32/28
f 19/28/26 18/27/25 22/33/29
f 22/33/29 21/32/28 26/21/21
f 23/34/30 22/33/29 27/37/31
f 27/41/31 26/51/21 30/19/19
f 28/42/32 27/41/31 31/18/18
f 17/9/9 16/8/8 20/22/22
f 6/6/6 5/5/5 9/1/1
f 11/11/11 7/15/15 6/6/6
f 31/18/18 33/4/4 3/46/34
f 1/10/10 2/17/17 30/19/19
